<?xml version="1.0" encoding="UTF-8" standalone="no"?>
<!-- Created with Inkscape (http://www.inkscape.org/) -->

<svg
   width="210mm"
   height="297mm"
   viewBox="0 0 210 297"
   version="1.1"
   id="svg1"
   xml:space="preserve"
   inkscape:version="1.3.2 (091e20e, 2023-11-25, custom)"
   sodipodi:docname="International harvester logo inkskape.svg"
   xmlns:inkscape="http://www.inkscape.org/namespaces/inkscape"
   xmlns:sodipodi="http://sodipodi.sourceforge.net/DTD/sodipodi-0.dtd"
   xmlns="http://www.w3.org/2000/svg"
   xmlns:svg="http://www.w3.org/2000/svg"><sodipodi:namedview
     id="namedview1"
     pagecolor="#ffffff"
     bordercolor="#000000"
     borderopacity="0.25"
     inkscape:showpageshadow="2"
     inkscape:pageopacity="0.0"
     inkscape:pagecheckerboard="0"
     inkscape:deskcolor="#d1d1d1"
     inkscape:document-units="mm"
     inkscape:zoom="0.18507471"
     inkscape:cx="610.56426"
     inkscape:cy="29.717729"
     inkscape:window-width="1920"
     inkscape:window-height="1027"
     inkscape:window-x="-8"
     inkscape:window-y="1072"
     inkscape:window-maximized="1"
     inkscape:current-layer="layer1" /><defs
     id="defs1" /><g
     inkscape:label="Layer 1"
     inkscape:groupmode="layer"
     id="layer1"><path
       style="fill:#000000"
       d="m 142.66799,430.81432 c -3.33525,-0.64956 -5.50043,-1.78472 -7.3869,-3.87283 -1.22386,-1.35466 -2.46946,-3.93495 -2.69544,-5.58367 l -0.16681,-1.21701 3.1402,-0.22525 c 1.72711,-0.12388 3.30447,-0.22834 3.50524,-0.23212 0.2053,-0.004 0.53999,0.54129 0.76483,1.24576 0.49422,1.54855 1.8813,3.20705 3.33033,3.98201 0.95684,0.51174 1.4993,0.58619 4.27105,0.58619 2.76776,0 3.31496,-0.0749 4.26619,-0.58371 3.20701,-1.71551 3.56173,-4.81728 0.71423,-6.24543 -0.70194,-0.35206 -3.176,-1.08832 -5.49792,-1.63613 -6.99015,-1.64919 -9.38943,-2.67789 -11.28734,-4.83949 -2.01313,-2.29283 -2.49115,-5.69348 -1.17768,-8.37811 1.73389,-3.54394 5.28499,-5.31316 11.26273,-5.61128 8.38986,-0.41841 14.07347,2.80189 14.73008,8.34599 l 0.16029,1.35337 h -2.38118 c -1.30964,0 -2.9038,0.0682 -3.54258,0.15149 l -1.16141,0.15149 -0.79375,-1.67211 c -0.68419,-1.44133 -0.97305,-1.76232 -2.0929,-2.32571 -1.09549,-0.55114 -1.67617,-0.65393 -3.70417,-0.65572 -3.87795,-0.003 -6.24147,1.1343 -6.24147,3.00445 0,1.86187 1.32741,2.54678 8.19694,4.22943 7.76754,1.90262 10.53591,3.42522 12.00402,6.60221 0.8373,1.81192 0.81685,5.75371 -0.0388,7.49076 -1.35948,2.75967 -3.87913,4.69651 -7.32982,5.63439 -2.20165,0.59839 -8.43314,0.77132 -10.84791,0.30103 z M -41.878893,414.64948 v -16.00729 h 3.56708 3.56709 l 0.0709,6.28386 0.0709,6.28385 7.0776,0.0705 7.07761,0.0705 v -6.35433 -6.35432 h 3.70417 3.70416 v 16.00729 16.0073 h -3.70416 -3.70417 v -7.01146 -7.01146 h -7.14375 -7.14375 v 7.01146 7.01146 h -3.57188 -3.57187 z m 32.93593,15.1474 c 0.20085,-0.47294 3.34498,-7.64646 6.9869601,-15.94114 l 6.62177,-15.08126 h 3.90776 3.9077499 l 7.06521,15.61042 c 3.88587,8.58573 7.07342,15.76243 7.08346,15.94822 0.0142,0.26264 -0.84643,0.32151 -3.86798,0.26458 l -3.88623,-0.0732 -1.58475,-3.64218 -1.58476,-3.64219 -7.1544599,0.0703 -7.15447,0.0703 -1.46360997,3.63302 -1.46362003,3.63302 -3.8891101,0.005 -3.8891,0.005 z m 21.95308,-12.83229 c -0.22881,-0.5457 -1.32543,-3.16789 -2.43694,-5.82708 -1.5368099,-3.67671 -2.0791199,-4.7309 -2.2638799,-4.40075 -0.13362,0.23877 -1.23465,2.86096 -2.44673,5.82708 l -2.20379,5.39294 h 4.88368 4.8836699 z m 17.60682,-2.31511 v -16.00729 l 9.32656,0.008 c 11.93687,0.0105 14.34562,0.3123 16.82502,2.10837 2.42141,1.75406 3.82532,5.26953 3.27855,8.20965 -0.72653,3.90672 -2.86452,5.99908 -7.27414,7.11892 l -1.86978,0.47483 1.43242,0.91825 c 0.78782,0.50504 2.10529,1.64639 2.9277,2.53634 1.36236,1.47423 7.63284,10.08767 7.63284,10.48484 0,0.0926 -1.93001,0.13561 -4.28891,0.0956 l -4.2889,-0.0727 -3.8946,-5.1276 c -4.5558,-5.99814 -5.29141,-6.81538 -6.70988,-7.45438 -0.91257,-0.41109 -3.34108,-0.66406 -5.22552,-0.54431 -0.42785,0.0272 -0.46303,0.532 -0.46303,6.644 v 6.61459 h -3.70416 -3.70417 z m 19.94113,-3.15939 c 1.37379,-0.67442 2.01706,-1.79027 2.0183,-3.50103 8e-4,-1.10232 -0.13825,-1.53424 -0.71426,-2.21879 -1.22139,-1.45154 -1.84431,-1.57183 -8.1398,-1.57183 h -5.69704 v 3.99466 3.99466 l 5.75469,-0.0976 c 4.98986,-0.0847 5.89071,-0.1644 6.77811,-0.60004 z m 19.41178,3.62242 c -3.44232,-8.54935 -6.33581,-15.75263 -6.42998,-16.0073 -0.15823,-0.42792 0.12775,-0.46302 3.77257,-0.46302 h 3.94379 l 4.47517,11.64167 c 2.46135,6.40292 4.54284,11.64167 4.62555,11.64167 0.0827,0 0.59996,-1.22039 1.14945,-2.71198 0.54949,-1.49159 2.49645,-6.73034 4.326594,-11.64167 l 3.32753,-8.92969 h 3.80113 c 2.09062,0 3.80113,0.0728 3.80113,0.1617 0,0.0889 -2.87271,7.29221 -6.38381,16.00729 l -6.383814,15.8456 h -3.88328 -3.88327 z m 30.761683,-0.46547 V 398.6373 l 13.29531,0.0686 13.29531,0.0686 v 2.64584 2.64583 l -9.72343,0.0694 -9.72344,0.0694 v 3.43633 3.43632 h 8.99583 8.99584 v 2.77813 2.77812 h -8.99584 -8.99583 v 4.20503 c 0,3.13283 0.0843,4.23122 0.33073,4.30776 0.1819,0.0565 4.70627,0.0927 10.05416,0.0804 l 9.72344,-0.0224 v 2.72608 2.72608 h -13.62604 -13.62604 z m 75.14167,2.78057 v -13.22917 h -5.29167 -5.29167 v -2.77812 -2.77813 h 14.2875 14.2875 v 2.77813 2.77812 h -5.29166 -5.29167 v 13.22917 13.22917 h -3.70417 -3.70416 z m 22.75416,-2.77813 v -16.00729 h 13.37072 13.37071 l -0.0754,2.71198 -0.0754,2.71198 -9.72344,0.0694 -9.72344,0.0694 v 3.43633 3.43632 h 8.99584 8.99583 v 2.77813 2.77812 h -8.99583 -8.99584 v 4.20503 c 0,3.13283 0.0843,4.23122 0.33073,4.30776 0.1819,0.0565 4.70628,0.0927 10.05417,0.0804 l 9.72344,-0.0224 v 2.72608 2.72608 H 212.2534 198.62736 Z m 33.60209,-0.0233 v -16.03059 l 10.51718,0.11808 c 11.09391,0.12455 12.13198,0.22845 14.50399,1.45175 1.35392,0.69824 2.91572,2.41139 3.6472,4.00063 0.4331,0.94096 0.56351,1.74166 0.5655,3.47197 0.002,1.92878 -0.10251,2.46297 -0.73563,3.75221 -1.20131,2.4463 -3.25104,3.90553 -6.61364,4.70833 l -1.79559,0.42868 1.84588,1.26124 c 2.35397,1.6084 3.38433,2.87568 9.8709,12.14068 l 0.50941,0.72761 h -4.35604 -4.35604 l -3.65725,-4.82865 c -5.87673,-7.759 -6.54508,-8.3198 -10.024,-8.41088 -1.01865,-0.0267 -2.06044,-0.0352 -2.3151,-0.0191 -0.42784,0.0272 -0.46302,0.532 -0.46302,6.644 v 6.61459 h -3.57188 -3.57187 z m 19.81609,-3.1517 c 1.37395,-0.80929 1.93769,-1.73528 1.95565,-3.21232 0.0214,-1.76036 -0.63954,-2.92657 -2.01169,-3.54954 -0.97724,-0.44368 -1.78117,-0.50325 -6.86162,-0.50838 l -5.75468,-0.006 v 3.99427 3.99426 l 5.88697,-0.0917 c 5.31355,-0.0827 5.97449,-0.1432 6.78537,-0.62082 z M 187.6435,374.97385 c -3.56602,-0.64804 -7.07626,-2.51028 -9.13027,-4.84376 -2.62829,-2.98589 -3.78067,-6.40135 -3.7706,-11.17541 0.0117,-5.53169 1.32802,-8.93106 4.69801,-12.13223 3.37318,-3.20419 6.64763,-4.35905 12.43985,-4.38739 6.05973,-0.0297 9.86765,1.32996 13.23369,4.7251 3.20841,3.23613 4.3611,6.35007 4.3611,11.78126 0,4.38356 -0.89104,7.40086 -3.05685,10.35128 -1.19742,1.63121 -4.01486,3.75371 -6.08793,4.58629 -3.53564,1.41998 -8.52747,1.85076 -12.687,1.09486 z m 7.27062,-5.45861 c 0.73694,-0.15804 2.04407,-0.75758 2.90474,-1.33231 2.64536,-1.76651 3.86103,-4.19555 4.1633,-8.31875 0.41051,-5.59974 -1.64949,-9.67494 -5.69713,-11.27036 -2.14329,-0.8448 -6.14985,-0.83934 -8.3102,0.0113 -1.78043,0.70107 -3.9765,2.6984 -4.6082,4.19118 -1.14225,2.69923 -1.47692,6.41267 -0.84594,9.38648 0.78192,3.68523 3.47274,6.53918 6.94751,7.36872 1.26311,0.30155 3.95428,0.28362 5.44592,-0.0363 z M -92.414313,358.8224 v -16.00729 h 3.70417 3.70416 v 16.00729 16.00729 h -3.70416 -3.70417 z m 14.2875,0 v -16.00729 h 3.52724 3.52724 l 7.25453,10.51719 7.25453,10.51719 0.0692,-10.51719 0.0692,-10.51719 h 3.43655 3.43655 v 16.00729 16.00729 h -3.66771 -3.66771 l -7.11406,-10.21696 -7.11406,-10.21696 -0.0693,10.21696 -0.0693,10.21696 h -3.43648 -3.43648 z m 44.45,2.77813 v -13.22917 h -5.42396 -5.42396 v -2.77813 -2.77812 h 14.2875 14.2875 v 2.77812 2.77813 h -5.29166 -5.29167 v 13.22917 13.22916 h -3.57187 -3.57188 z m 22.48958,-2.77813 V 342.81511 H 2.1742271 15.535687 v 2.77812 2.77813 h -9.6572899 -9.65729 v 3.43958 3.43959 h 8.99583 8.9958299 v 2.77812 2.77813 h -8.9958299 -8.99583 v 4.36562 4.36563 h 10.05416 10.0541699 v 2.64583 2.64583 H 2.5711071 -11.187233 Z m 33.60209,-0.0273 v -16.03459 l 10.51719,0.12713 c 11.73453,0.14184 12.86232,0.28163 15.30452,1.89698 1.48867,0.98466 2.86398,2.84563 3.3235,4.49713 0.41928,1.50685 0.33066,4.40563 -0.17159,5.61307 -0.6477,1.5571 -1.65773,2.88536 -2.7916,3.67112 -1.18182,0.81901 -4.20321,1.97625 -5.15968,1.97625 -0.97063,0 -0.78675,0.3097 0.70694,1.19063 0.74022,0.43656 1.95825,1.45536 2.70673,2.264 1.21514,1.31281 7.84315,10.35081 7.84315,10.69498 0,0.0758 -1.93476,0.13573 -4.29947,0.13309 l -4.29948,-0.005 -3.70417,-4.93252 c -5.8794,-7.82907 -6.46231,-8.28704 -10.54788,-8.28704 h -2.01983 v 6.61458 6.61458 h -3.70417 -3.70416 z m 19.97604,-3.16586 c 2.74585,-1.42003 2.62376,-5.45468 -0.2039,-6.73829 -0.98947,-0.44916 -1.76993,-0.50864 -6.74141,-0.51378 l -5.6224,-0.006 v 3.99112 3.99111 l 5.75469,-0.0885 c 5.19875,-0.08 5.85693,-0.14139 6.81302,-0.63584 z m 16.53646,3.19316 v -16.00729 l 3.50573,0.004 3.50573,0.004 7.27604,10.55515 7.27604,10.55514 0.0692,-10.55882 0.0692,-10.55882 h 3.43658 3.436584 v 16.01456 16.01455 l -3.740274,-0.0734 -3.74028,-0.0734 -7.17379,-10.29907 -7.17378,-10.29906 -0.0692,10.36521 -0.0692,10.36521 h -3.30422 -3.30422 z m 32.705544,15.62895 c 0.0828,-0.21583 3.22341,-7.39252 6.97908,-15.94818 l 6.828489,-15.55577 h 3.89031 3.89031 l 6.98605,15.47813 c 3.84233,8.51297 7.05286,15.68648 7.13451,15.94114 0.13686,0.42685 -0.1585,0.46302 -3.78105,0.46302 h -3.92951 l -1.48821,-3.50573 -1.48821,-3.50572 -7.26226,-0.0703 -7.26225,-0.0703 -1.44798,3.50984 -1.447979,3.50985 -3.87594,0.0732 c -3.33667,0.063 -3.85499,0.0186 -3.72536,-0.31924 z M 111.747,356.32459 c -1.32908,-3.19281 -2.48719,-5.72288 -2.57357,-5.62239 -0.13294,0.15465 -3.73955,8.83653 -4.48116,10.78711 l -0.24348,0.64038 h 4.85736 4.85736 z m 27.87828,5.28141 v -13.22368 l -5.35781,-0.0716 -5.35782,-0.0716 -0.0754,-2.71426 -0.0754,-2.71427 14.36293,0.0684 14.36292,0.0684 v 2.64583 2.64584 l -5.35781,0.0716 -5.35781,0.0716 v 13.22368 13.22369 h -3.57188 -3.57187 z m 22.28908,-2.71745 0.0682,-15.94115 3.63802,-0.0736 3.63802,-0.0736 v 16.01476 16.01475 h -3.70623 -3.70623 z m 53.38175,-0.0661 v -16.00734 h 3.53012 3.53013 l 7.25165,10.51089 7.25164,10.51089 0.1323,-10.44474 0.13229,-10.44475 3.37343,-0.074 3.37344,-0.074 v 16.0152 16.01519 h -3.65914 -3.65914 l -7.12263,-10.22926 -7.12263,-10.22926 -0.0692,10.22926 -0.0693,10.22926 h -3.43647 -3.43648 z m 33.83475,13.16302 c 0.69568,-1.56435 3.86238,-8.77071 7.03711,-16.01414 l 5.77224,-13.16987 3.85946,0.073 3.85946,0.073 5.48975,12.17084 c 3.01937,6.69395 6.25963,13.87054 7.20059,15.94796 l 1.71082,3.77713 -4.0067,-0.073 -4.00669,-0.073 -1.48433,-3.43958 -1.48433,-3.43958 -7.2758,-0.0702 -7.2758,-0.0702 -1.43447,3.57597 -1.43448,3.57597 h -3.89585 -3.89586 z m 21.21521,-10.45104 c -0.66972,-1.69754 -4.54541,-10.90084 -4.62341,-10.97883 -0.05,-0.05 -0.51246,0.9562 -1.02777,2.23592 -0.51531,1.27972 -1.59186,3.90434 -2.39233,5.83249 l -1.45542,3.50573 h 4.8669 4.86689 z m 17.71046,-2.57969 v -15.875 h 3.70417 3.70416 v 13.22917 13.22917 h 8.99584 8.99583 v 2.64583 2.64583 h -12.7 -12.7 z M -92.414313,148.47865 V -9.0807165 h 54.10729 54.10729 V 41.057825 91.196367 h 9.78959 9.78958 v 51.855063 51.85508 l -9.72344,0.0694 -9.72343,0.0694 -0.0668,55.49635 -0.0668,55.49636 h -54.10668 -54.10667 z m 138.64167,0 V -9.0807165 h 54.371883 54.37187 V 148.47865 306.03803 H 100.59924 46.227357 Z M 185.3982,250.47553 v -55.5625 h -9.79025 -9.79025 l 0.0668,-51.79219 0.0668,-51.792181 9.72344,-0.06941 9.72344,-0.06941 V 41.054565 -9.0807165 h 55.29791 55.29792 V 148.47865 306.03803 H 240.69611 185.3982 Z M 46.337917,-19.906261 c -0.0608,-0.06081 -0.11056,-21.998223 -0.11056,-48.749805 v -48.639244 h 54.372583 54.37258 l -0.0668,48.749331 -0.0669,48.74932 -54.19516,4.82e-4 c -29.807353,2.65e-4 -54.244923,-0.04927 -54.305743,-0.110084 z"
       id="path1" /></g></svg>
